\relax 
\citation{shell:1959}
\@writefile{toc}{\contentsline {section}{\numberline {1}Introduction}{1}}
\@writefile{toc}{\contentsline {section}{\numberline {2}Technologies}{1}}
\@writefile{lof}{\contentsline {figure}{\numberline {1}{\ignorespaces GUI of game GO}}{2}}
\newlabel{fig:lena}{{1}{2}}
\newlabel{fig:lena@cref}{{[figure][1][]1}{2}}
\@writefile{toc}{\contentsline {section}{\numberline {3}Basic Structures and Method}{2}}
\citation{shell:1959}
\citation{shell:1960}
\bibstyle{plain}
\bibdata{bibliography}
\bibcite{shell:1959}{1}
\bibcite{shell:1960}{2}
\@writefile{toc}{\contentsline {section}{\numberline {4}Results}{4}}
\@writefile{toc}{\contentsline {section}{\numberline {5}Concluding remarks}{4}}
